task1/counter.vcd
$version Generated by VerilatedVcd $end
$date Thu Oct 24 10:36:16 2024 $end
$timescale 1ps $end

 $scope module TOP $end
  $var wire  1 # clk $end
  $var wire  8 ' dout [7:0] $end
  $var wire  1 % en $end
  $var wire  8 & incr [7:0] $end
  $var wire  1 $ rst $end
  $scope module sinegen $end
   $var wire 32 ) A_WIDTH [31:0] $end
   $var wire 32 ) D_WIDTH [31:0] $end
   $var wire  8 ( address [7:0] $end
   $var wire  1 # clk $end
   $var wire  8 ' dout [7:0] $end
   $var wire  1 % en $end
   $var wire  8 & incr [7:0] $end
   $var wire  1 $ rst $end
   $scope module addrCounter $end
    $var wire 32 ) WIDTH [31:0] $end
    $var wire  1 # clk $end
    $var wire  8 ( count [7:0] $end
    $var wire  1 % en $end
    $var wire  8 & incr [7:0] $end
    $var wire  1 $ rst $end
   $upscope $end
   $scope module sineRom $end
    $var wire 32 ) ADDRESS_WIDTH [31:0] $end
    $var wire 32 ) DATA_WIDTH [31:0] $end
    $var wire  8 ( addr [7:0] $end
    $var wire  1 # clk $end
    $var wire  8 ' dout [7:0] $end
   $upscope $end
  $upscope $end
 $upscope $end
$enddefinitions $end


#0
1#
1$
0%
b00000001 &
b00000000 '
b00000000 (
b00000000000000000000000000001000 )
#1
0#
#2
1#
b11111110 '
#3
0#
#4
1#
#5
0#
#6
1#
#7
0#
#8
1#
#9
0#
#10
1#
#11
0#
#12
1#
#13
0#
#14
1#
1%
#15
0#
#16
1#
#17
0#
#18
1#
#19
0#
#20
1#
#21
0#
#22
1#
0$
#23
0#
#24
1#
b00000001 (
#25
0#
#26
1#
b11111101 '
b00000010 (
#27
0#
#28
1#
b00000011 (
#29
0#
#30
1#
b00000100 (
#31
0#
#32
1#
b00000101 (
#33
0#
#34
1#
b00000110 (
#35
0#
#36
1#
b11111100 '
b00000111 (
#37
0#
#38
1#
b00001000 (
#39
0#
#40
1#
b11111011 '
b00001001 (
#41
0#
#42
1#
b11111010 '
b00001010 (
#43
0#
#44
1#
b00001011 (
#45
0#
#46
1#
b11111001 '
b00001100 (
#47
0#
#48
1#
b11111000 '
b00001101 (
#49
0#
#50
1#
b11110111 '
b00001110 (
#51
0#
#52
1#
b11110110 '
b00001111 (
#53
0#
#54
1#
b11110101 '
b00010000 (
#55
0#
#56
1#
b11110100 '
b00010001 (
#57
0#
#58
1#
b11110011 '
b00010010 (
#59
0#
#60
1#
b11110001 '
b00010011 (
#61
0#
#62
1#
b11110000 '
b00010100 (
#63
0#
#64
1#
b11101111 '
b00010101 (
#65
0#
#66
1#
b11101101 '
b00010110 (
#67
0#
#68
1#
b11101011 '
b00010111 (
#69
0#
#70
1#
b11101010 '
b00011000 (
#71
0#
#72
1#
b11101000 '
b00011001 (
#73
0#
#74
1#
b11100110 '
b00011010 (
#75
0#
#76
1#
b11100101 '
b00011011 (
#77
0#
#78
1#
b11100011 '
b00011100 (
#79
0#
#80
1#
b11100001 '
b00011101 (
#81
0#
#82
1#
b11011111 '
b00011110 (
#83
0#
#84
1#
b11011101 '
b00011111 (
#85
0#
#86
1#
b11011010 '
b00100000 (
#87
0#
#88
1#
b11011000 '
b00100001 (
#89
0#
#90
1#
b11010110 '
b00100010 (
#91
0#
#92
1#
b11010100 '
b00100011 (
#93
0#
#94
1#
b11010001 '
b00100100 (
#95
0#
#96
1#
b11001111 '
b00100101 (
#97
0#
#98
1#
b11001101 '
b00100110 (
#99
0#
#100
1#
b11001010 '
b00100111 (
#101
0#
#102
1#
b11001000 '
b00101000 (
#103
0#
#104
1#
b11000101 '
b00101001 (
#105
0#
#106
1#
b11000010 '
b00101010 (
#107
0#
#108
1#
b11000000 '
b00101011 (
#109
0#
#110
1#
b10111101 '
b00101100 (
#111
0#
#112
1#
b10111010 '
b00101101 (
#113
0#
#114
1#
b10111000 '
b00101110 (
#115
0#
#116
1#
b10110101 '
b00101111 (
#117
0#
#118
1#
b10110010 '
b00110000 (
#119
0#
#120
1#
b10101111 '
b00110001 (
#121
0#
#122
1#
b10101100 '
b00110010 (
#123
0#
#124
1#
b10101001 '
b00110011 (
#125
0#
#126
1#
b10100110 '
b00110100 (
#127
0#
#128
1#
b10100011 '
b00110101 (
#129
0#
#130
1#
b10100000 '
b00110110 (
#131
0#
#132
1#
b10011101 '
b00110111 (
#133
0#
#134
1#
b10011010 '
b00111000 (
#135
0#
#136
1#
b10010111 '
b00111001 (
#137
0#
#138
1#
b10010100 '
b00111010 (
#139
0#
#140
1#
b10010001 '
b00111011 (
#141
0#
#142
1#
b10001110 '
b00111100 (
#143
0#
#144
1#
b10001011 '
b00111101 (
#145
0#
#146
1#
b10001000 '
b00111110 (
#147
0#
#148
1#
b10000101 '
b00111111 (
#149
0#
#150
1#
b10000010 '
b01000000 (
#151
0#
#152
1#
b01111110 '
b01000001 (
#153
0#
#154
1#
b01111011 '
b01000010 (
#155
0#
#156
1#
b01111000 '
b01000011 (
#157
0#
#158
1#
b01110101 '
b01000100 (
#159
0#
#160
1#
b01110010 '
b01000101 (
#161
0#
#162
1#
b01101111 '
b01000110 (
#163
0#
#164
1#
b01101100 '
b01000111 (
#165
0#
#166
1#
b01101001 '
b01001000 (
#167
0#
#168
1#
b01100110 '
b01001001 (
#169
0#
#170
1#
b01100011 '
b01001010 (
#171
0#
#172
1#
b01100000 '
b01001011 (
#173
0#
#174
1#
b01011101 '
b01001100 (
#175
0#
#176
1#
b01011010 '
b01001101 (
#177
0#
#178
1#
b01010111 '
b01001110 (
#179
0#
#180
1#
b01010100 '
b01001111 (
#181
0#
#182
1#
b01010001 '
b01010000 (
#183
0#
#184
1#
b01001110 '
b01010001 (
#185
0#
#186
1#
b01001011 '
b01010010 (
#187
0#
#188
1#
b01001000 '
b01010011 (
#189
0#
#190
1#
b01000101 '
b01010100 (
#191
0#
#192
1#
b01000011 '
b01010101 (
#193
0#
#194
1#
b01000000 '
b01010110 (
#195
0#
#196
1#
b00111101 '
b01010111 (
#197
0#
#198
1#
b00111011 '
b01011000 (
#199
0#
#200
1#
b00111000 '
b01011001 (
#201
0#
#202
1#
b00110101 '
b01011010 (
#203
0#
#204
1#
b00110011 '
b01011011 (
#205
0#
#206
1#
b00110000 '
b01011100 (
#207
0#
#208
1#
b00101110 '
b01011101 (
#209
0#
#210
1#
b00101100 '
b01011110 (
#211
0#
#212
1#
b00101001 '
b01011111 (
#213
0#
#214
1#
b00100111 '
b01100000 (
#215
0#
#216
1#
b00100101 '
b01100001 (
#217
0#
#218
1#
b00100011 '
b01100010 (
#219
0#
#220
1#
b00100000 '
b01100011 (
#221
0#
#222
1#
b00011110 '
b01100100 (
#223
0#
#224
1#
b00011100 '
b01100101 (
#225
0#
#226
1#
b00011010 '
b01100110 (
#227
0#
#228
1#
b00011000 '
b01100111 (
#229
0#
#230
1#
b00010111 '
b01101000 (
#231
0#
#232
1#
b00010101 '
b01101001 (
#233
0#
#234
1#
b00010011 '
b01101010 (
#235
0#
#236
1#
b00010010 '
b01101011 (
#237
0#
#238
1#
b00010000 '
b01101100 (
#239
0#
#240
1#
b00001110 '
b01101101 (
#241
0#
#242
1#
b00001101 '
b01101110 (
#243
0#
#244
1#
b00001100 '
b01101111 (
#245
0#
#246
1#
b00001010 '
b01110000 (
#247
0#
#248
1#
b00001001 '
b01110001 (
#249
0#
#250
1#
b00001000 '
b01110010 (
#251
0#
#252
1#
b00000111 '
b01110011 (
#253
0#
#254
1#
b00000110 '
b01110100 (
#255
0#
#256
1#
b00000101 '
b01110101 (
#257
0#
#258
1#
b00000100 '
b01110110 (
#259
0#
#260
1#
b00000011 '
b01110111 (
#261
0#
#262
1#
b01111000 (
#263
0#
#264
1#
b00000010 '
b01111001 (
#265
0#
#266
1#
b00000001 '
b01111010 (
#267
0#
#268
1#
b01111011 (
#269
0#
#270
1#
b00000000 '
b01111100 (
#271
0#
#272
1#
b01111101 (
#273
0#
#274
1#
b01111110 (
#275
0#
#276
1#
b01111111 (
#277
0#
#278
1#
b10000000 (
#279
0#
#280
1#
b10000001 (
#281
0#
#282
1#
b10000010 (
#283
0#
#284
1#
b10000011 (
#285
0#
#286
1#
b10000100 (
#287
0#
#288
1#
b10000101 (
#289
0#
#290
1#
b10000110 (
#291
0#
#292
1#
b00000001 '
b10000111 (
#293
0#
#294
1#
b10001000 (
#295
0#
#296
1#
b00000010 '
b10001001 (
#297
0#
#298
1#
b00000011 '
b10001010 (
#299
0#
#300
1#
b10001011 (
#301
0#
#302
1#
b00000100 '
b10001100 (
#303
0#
#304
1#
b00000101 '
b10001101 (
#305
0#
#306
1#
b00000110 '
b10001110 (
#307
0#
#308
1#
b00000111 '
b10001111 (
#309
0#
#310
1#
b00001000 '
b10010000 (
#311
0#
#312
1#
b00001001 '
b10010001 (
#313
0#
#314
1#
b00001010 '
b10010010 (
#315
0#
#316
1#
b00001100 '
b10010011 (
#317
0#
#318
1#
b00001101 '
b10010100 (
#319
0#
#320
1#
b00001110 '
b10010101 (
#321
0#
#322
1#
b00010000 '
b10010110 (
#323
0#
#324
1#
b00010010 '
b10010111 (
#325
0#
#326
1#
b00010011 '
b10011000 (
#327
0#
#328
1#
b00010101 '
b10011001 (
#329
0#
#330
1#
b00010111 '
b10011010 (
#331
0#
#332
1#
b00011000 '
b10011011 (
#333
0#
#334
1#
b00011010 '
b10011100 (
#335
0#
#336
1#
b00011100 '
b10011101 (
#337
0#
#338
1#
b00011110 '
b10011110 (
#339
0#
#340
1#
b00100000 '
b10011111 (
#341
0#
#342
1#
b00100011 '
b10100000 (
#343
0#
#344
1#
b00100101 '
b10100001 (
#345
0#
#346
1#
b00100111 '
b10100010 (
#347
0#
#348
1#
b00101001 '
b10100011 (
#349
0#
#350
1#
b00101100 '
b10100100 (
#351
0#
#352
1#
b00101110 '
b10100101 (
#353
0#
#354
1#
b00110000 '
b10100110 (
#355
0#
#356
1#
b00110011 '
b10100111 (
#357
0#
#358
1#
b00110101 '
b10101000 (
#359
0#
#360
1#
b00111000 '
b10101001 (
#361
0#
#362
1#
b00111011 '
b10101010 (
#363
0#
#364
1#
b00111101 '
b10101011 (
#365
0#
#366
1#
b01000000 '
b10101100 (
#367
0#
#368
1#
b01000011 '
b10101101 (
#369
0#
#370
1#
b01000101 '
b10101110 (
#371
0#
#372
1#
b01001000 '
b10101111 (
#373
0#
#374
1#
b01001011 '
b10110000 (
#375
0#
#376
1#
b01001110 '
b10110001 (
#377
0#
#378
1#
b01010001 '
b10110010 (
#379
0#
#380
1#
b01010100 '
b10110011 (
#381
0#
#382
1#
b01010111 '
b10110100 (
#383
0#
#384
1#
b01011010 '
b10110101 (
#385
0#
#386
1#
b01011101 '
b10110110 (
#387
0#
#388
1#
b01100000 '
b10110111 (
#389
0#
#390
1#
b01100011 '
b10111000 (
#391
0#
#392
1#
b01100110 '
b10111001 (
#393
0#
#394
1#
b01101001 '
b10111010 (
#395
0#
#396
1#
b01101100 '
b10111011 (
#397
0#
#398
1#
b01101111 '
b10111100 (
#399
0#
#400
1#
b01110010 '
b10111101 (
#401
0#
#402
1#
b01110101 '
b10111110 (
#403
0#
#404
1#
b01111000 '
b10111111 (
#405
0#
#406
1#
b01111011 '
b11000000 (
#407
0#
#408
1#
b01111111 '
b11000001 (
#409
0#
#410
1#
b10000010 '
b11000010 (
#411
0#
#412
1#
b10000101 '
b11000011 (
#413
0#
#414
1#
b10001000 '
b11000100 (
#415
0#
#416
1#
b10001011 '
b11000101 (
#417
0#
#418
1#
b10001110 '
b11000110 (
#419
0#
#420
1#
b10010001 '
b11000111 (
#421
0#
#422
1#
b10010100 '
b11001000 (
#423
0#
#424
1#
b10010111 '
b11001001 (
#425
0#
#426
1#
b10011010 '
b11001010 (
#427
0#
#428
1#
b10011101 '
b11001011 (
#429
0#
#430
1#
b00000010 &
b10100000 '
b11001100 (
#431
0#
#432
1#
b10100011 '
b11001110 (
#433
0#
#434
1#
b10101001 '
b11010000 (
#435
0#
#436
1#
b10101111 '
b11010010 (
#437
0#
#438
1#
b10110101 '
b11010100 (
#439
0#
#440
1#
b10111010 '
b11010110 (
#441
0#
#442
1#
b11000000 '
b11011000 (
#443
0#
#444
1#
b11000101 '
b11011010 (
#445
0#
#446
1#
b11001010 '
b11011100 (
#447
0#
#448
1#
b00000011 &
b11001111 '
b11011110 (
#449
0#
#450
1#
b11010100 '
b11100001 (
#451
0#
#452
1#
b11011010 '
b11100100 (
#453
0#
#454
1#
b11100001 '
b11100111 (
#455
0#
#456
1#
b11100110 '
b11101010 (
#457
0#
#458
1#
b11101011 '
b11101101 (
#459
0#
#460
1#
b11110000 '
b11110000 (
#461
0#
#462
1#
b11110100 '
b11110011 (
#463
0#
#464
1#
b00000100 &
b11110111 '
b11110110 (
#465
0#
#466
1#
b11111010 '
b11111010 (
#467
0#
#468
1#
b11111100 '
b11111110 (
#469
0#
#470
1#
b11111101 '
b00000010 (
#471
0#
#472
1#
b00000110 (
#473
0#
#474
1#
b11111100 '
b00001010 (
#475
0#
#476
1#
b11111010 '
b00001110 (
#477
0#
#478
1#
b11110110 '
b00010010 (
#479
0#
#480
1#
b11110001 '
b00010110 (
#481
0#
#482
1#
b11101011 '
b00011010 (
#483
0#
#484
1#
b11100101 '
b00011110 (
#485
0#
#486
1#
b00000101 &
b11011101 '
b00100010 (
#487
0#
#488
1#
b11010100 '
b00100111 (
#489
0#
#490
1#
b11001000 '
b00101100 (
#491
0#
#492
1#
b10111010 '
b00110001 (
#493
0#
#494
1#
b10101100 '
b00110110 (
#495
0#
#496
1#
b10011101 '
b00111011 (
#497
0#
#498
1#
b10001110 '
b01000000 (
#499
0#
#500
1#
b01111110 '
b01000101 (
#501
0#
#502
1#
b01101111 '
b01001010 (
#503
0#
#504
1#
b01100000 '
b01001111 (
#505
0#
#506
1#
b01010001 '
b01010100 (
#507
0#
#508
1#
b01000011 '
b01011001 (
#509
0#
#510
1#
b00110101 '
b01011110 (
#511
0#
#512
1#
b00101001 '
b01100011 (
#513
0#
#514
1#
b00011110 '
b01101000 (
#515
0#
#516
1#
b00000110 &
b00010101 '
b01101101 (
#517
0#
#518
1#
b00001101 '
b01110011 (
#519
0#
#520
1#
b00000110 '
b01111001 (
#521
0#
#522
1#
b00000001 '
b01111111 (
#523
0#
#524
1#
b00000000 '
b10000101 (
#525
0#
#526
1#
b10001011 (
#527
0#
#528
1#
b00000100 '
b10010001 (
#529
0#
#530
1#
b00001010 '
b10010111 (
#531
0#
#532
1#
b00010011 '
b10011101 (
#533
0#
#534
1#
b00011110 '
b10100011 (
#535
0#
#536
1#
b00000111 &
b00101100 '
b10101001 (
#537
0#
#538
1#
b00111011 '
b10110000 (
#539
0#
#540
1#
b01001110 '
b10110111 (
#541
0#
#542
1#
b01100011 '
b10111110 (
#543
0#
#544
1#
b01111000 '
b11000101 (
#545
0#
#546
1#
b10001110 '
b11001100 (
#547
0#
#548
1#
b10100011 '
b11010011 (
#549
0#
#550
1#
b10111000 '
b11011010 (
#551
0#
#552
1#
b11001010 '
b11100001 (
#553
0#
#554
1#
b11011010 '
b11101000 (
#555
0#
#556
1#
b00001000 &
b11101000 '
b11101111 (
#557
0#
#558
1#
b11110011 '
b11110111 (
#559
0#
#560
1#
b11111010 '
b11111111 (
#561
0#
#562
1#
b11111101 '
b00000111 (
#563
0#
#564
1#
b11111100 '
b00001111 (
#565
0#
#566
1#
b11110101 '
b00010111 (
#567
0#
#568
1#
b11101010 '
b00011111 (
#569
0#
#570
1#
b11011010 '
b00100111 (
#571
0#
#572
1#
b11001000 '
b00101111 (
#573
0#
#574
1#
b10110010 '
b00110111 (
#575
0#
#576
1#
b10011010 '
b00111111 (
#577
0#
#578
1#
b00001001 &
b10000010 '
b01000111 (
#579
0#
#580
1#
b01101001 '
b01010000 (
#581
0#
#582
1#
b01001110 '
b01011001 (
#583
0#
#584
1#
b00110101 '
b01100010 (
#585
0#
#586
1#
b00100000 '
b01101011 (
#587
0#
#588
1#
b00010000 '
b01110100 (
#589
0#
#590
1#
b00000101 '
b01111101 (
#591
0#
#592
1#
b00000000 '
b10000110 (
#593
0#
#594
1#
b00000001 '
b10001111 (
#595
0#
#596
1#
b00001000 '
b10011000 (
#597
0#
#598
1#
b00010101 '
b10100001 (
#599
0#
#600
1#
b00100111 '
b10101010 (
#601
0#
#602
1#
b00001010 &
b00111101 '
b10110011 (
#603
0#
#604
1#
b01010111 '
b10111101 (
#605
0#
#606
1#
b01110101 '
b11000111 (
#607
0#
#608
1#
b10010100 '
b11010001 (
#609
0#
#610
1#
b10110010 '
b11011011 (
#611
0#
#612
1#
b11001101 '
b11100101 (
#613
0#
#614
1#
b11100011 '
b11101111 (
#615
0#
#616
1#
b11110011 '
b11111001 (
#617
0#
#618
1#
b11111100 '
b00000011 (
#619
0#
#620
1#
b11111101 '
b00001101 (
#621
0#
#622
1#
b11110111 '
b00010111 (
#623
0#
#624
1#
b11101010 '
b00100001 (
#625
0#
#626
1#
b11010110 '
b00101011 (
#627
0#
#628
1#
b10111101 '
b00110101 (
#629
0#
#630
1#
b00001011 &
b10100000 '
b00111111 (
#631
0#
#632
1#
b10000010 '
b01001010 (
#633
0#
#634
1#
b01100000 '
b01010101 (
#635
0#
#636
1#
b01000000 '
b01100000 (
#637
0#
#638
1#
b00100101 '
b01101011 (
#639
0#
#640
1#
b00010000 '
b01110110 (
#641
0#
#642
1#
b00000011 '
b10000001 (
#643
0#
#644
1#
b00000000 '
b10001100 (
#645
0#
#646
1#
b00000101 '
b10010111 (
#647
0#
#648
1#
b00010011 '
b10100010 (
#649
0#
#650
1#
b00101001 '
b10101101 (
#651
0#
#652
1#
b01000101 '
b10111000 (
#653
0#
#654
1#
b01100110 '
b11000011 (
#655
0#
#656
1#
b10001000 '
b11001110 (
#657
0#
#658
1#
b00001100 &
b10101001 '
b11011001 (
#659
0#
#660
1#
b11001000 '
b11100101 (
#661
0#
#662
1#
b11100011 '
b11110001 (
#663
0#
#664
1#
b11110101 '
b11111101 (
#665
0#
#666
1#
b11111101 '
b00001001 (
#667
0#
#668
1#
b11111010 '
b00010101 (
#669
0#
#670
1#
b11101101 '
b00100001 (
#671
0#
#672
1#
b11010110 '
b00101101 (
#673
0#
#674
1#
b10111000 '
b00111001 (
#675
0#
#676
1#
b10010100 '
b01000101 (
#677
0#
#678
1#
b01101111 '
b01010001 (
#679
0#
#680
1#
b00001101 &
b01001011 '
b01011101 (
#681
0#
#682
1#
b00101100 '
b01101010 (
#683
0#
#684
1#
b00010010 '
b01110111 (
#685
0#
#686
1#
b00000011 '
b10000100 (
#687
0#
#688
1#
b00000000 '
b10010001 (
#689
0#
#690
1#
b00001010 '
b10011110 (
#691
0#
#692
1#
b00001110 &
b00100000 '
b10101011 (
#693
0#
#694
1#
b01000000 '
b10111001 (
#695
0#
#696
1#
b01101001 '
b11000111 (
#697
0#
#698
1#
b10010100 '
b11010101 (
#699
0#
#700
1#
b10111101 '
b11100011 (
#701
0#
#702
1#
b11011111 '
b11110001 (
#703
0#
#704
1#
b11110101 '
b11111111 (
#705
0#
#706
1#
b11111101 '
b00001101 (
#707
0#
#708
1#
b11110111 '
b00011011 (
#709
0#
#710
1#
b00001111 &
b11100011 '
b00101001 (
#711
0#
#712
1#
b11000010 '
b00111000 (
#713
0#
#714
1#
b10010111 '
b01000111 (
#715
0#
#716
1#
b01101001 '
b01010110 (
#717
0#
#718
1#
b00111101 '
b01100101 (
#719
0#
#720
1#
b00011010 '
b01110100 (
#721
0#
#722
1#
b00000101 '
b10000011 (
#723
0#
#724
1#
b00000000 '
b10010010 (
#725
0#
#726
1#
b00001100 '
b10100001 (
#727
0#
#728
1#
b00100111 '
b10110000 (
#729
0#
#730
1#
b00010000 &
b01001110 '
b10111111 (
#731
0#
#732
1#
b01111011 '
b11001111 (
#733
0#
#734
1#
b10101100 '
b11011111 (
#735
0#
#736
1#
b11010110 '
b11101111 (
#737
0#
#738
1#
b11110011 '
b11111111 (
#739
0#
#740
1#
b11111101 '
b00001111 (
#741
0#
#742
1#
b11110101 '
b00011111 (
#743
0#
#744
1#
b11011010 '
b00101111 (
#745
0#
#746
1#
b10110010 '
b00111111 (
#747
0#
#748
1#
b10000010 '
b01001111 (
#749
0#
#750
1#
b01010001 '
b01011111 (
#751
0#
#752
1#
b00100111 '
b01101111 (
#753
0#
#754
1#
b00001010 '
b01111111 (
#755
0#
#756
1#
b00000000 '
b10001111 (
#757
0#
#758
1#
b00001000 '
b10011111 (
#759
0#
#760
1#
b00100011 '
b10101111 (
#761
0#
#762
1#
b00001111 &
b01001011 '
b10111111 (
#763
0#
#764
1#
b01111011 '
b11001110 (
#765
0#
#766
1#
b10101001 '
b11011101 (
#767
0#
#768
1#
b11010001 '
b11101100 (
#769
0#
#770
1#
b00001110 &
b11101111 '
b11111011 (
#771
0#
#772
1#
b11111101 '
b00001001 (
#773
0#
#774
1#
b11111010 '
b00010111 (
#775
0#
#776
1#
b11101010 '
b00100101 (
#777
0#
#778
1#
b11001101 '
b00110011 (
#779
0#
#780
1#
b10100110 '
b01000001 (
#781
0#
#782
1#
b01111011 '
b01001111 (
#783
0#
#784
1#
b01010001 '
b01011101 (
#785
0#
#786
1#
b00101100 '
b01101011 (
#787
0#
#788
1#
b00001101 &
b00010000 '
b01111001 (
#789
0#
#790
1#
b00000001 '
b10000110 (
#791
0#
#792
1#
b10010011 (
#793
0#
#794
1#
b00001101 '
b10100000 (
#795
0#
#796
1#
b00100101 '
b10101101 (
#797
0#
#798
1#
b01000101 '
b10111010 (
#799
0#
#800
1#
b01101100 '
b11000111 (
#801
0#
#802
1#
b10010100 '
b11010100 (
#803
0#
#804
1#
b10111010 '
b11100001 (
#805
0#
#806
1#
b11011010 '
b11101110 (
#807
0#
#808
1#
b11110001 '
b11111011 (
#809
0#
#810
1#
b11111101 '
b00001000 (
#811
0#
#812
1#
b11111011 '
b00010101 (
#813
0#
#814
1#
b11101101 '
b00100010 (
#815
0#
#816
1#
b11010100 '
b00101111 (
#817
0#
#818
1#
b10110010 '
b00111100 (
#819
0#
#820
1#
b10001011 '
b01001001 (
#821
0#
#822
1#
b00001100 &
b01100011 '
b01010110 (
#823
0#
#824
1#
b00111101 '
b01100010 (
#825
0#
#826
1#
b00100000 '
b01101110 (
#827
0#
#828
1#
b00001100 '
b01111010 (
#829
0#
#830
1#
b00000001 '
b10000110 (
#831
0#
#832
1#
b10010010 (
#833
0#
#834
1#
b00001100 '
b10011110 (
#835
0#
#836
1#
b00100000 '
b10101010 (
#837
0#
#838
1#
b00111101 '
b10110110 (
#839
0#
#840
1#
b00001011 &
b01100000 '
b11000010 (
#841
0#
#842
1#
b10000101 '
b11001101 (
#843
0#
#844
1#
b10100110 '
b11011000 (
#845
0#
#846
1#
b11000101 '
b11100011 (
#847
0#
#848
1#
b11011111 '
b11101110 (
#849
0#
#850
1#
b11110001 '
b11111001 (
#851
0#
#852
1#
b11111100 '
b00000100 (
#853
0#
#854
1#
b11111101 '
b00001111 (
#855
0#
#856
1#
b00001010 &
b11110101 '
b00011010 (
#857
0#
#858
1#
b11100101 '
b00100100 (
#859
0#
#860
1#
b11001111 '
b00101110 (
#861
0#
#862
1#
b00001001 &
b10110101 '
b00111000 (
#863
0#
#864
1#
b10010111 '
b01000001 (
#865
0#
#866
1#
b01111011 '
b01001010 (
#867
0#
#868
1#
b01100000 '
b01010011 (
#869
0#
#870
1#
b01000101 '
b01011100 (
#871
0#
#872
1#
b00101110 '
b01100101 (
#873
0#
#874
1#
b00011010 '
b01101110 (
#875
0#
#876
1#
b00001100 '
b01110111 (
#877
0#
#878
1#
b00000011 '
b10000000 (
#879
0#
#880
1#
b00000000 '
b10001001 (
#881
0#
#882
1#
b00001000 &
b00000011 '
b10010010 (
#883
0#
#884
1#
b00001100 '
b10011010 (
#885
0#
#886
1#
b00011000 '
b10100010 (
#887
0#
#888
1#
b00101001 '
b10101010 (
#889
0#
#890
1#
b00111101 '
b10110010 (
#891
0#
#892
1#
b01010100 '
b10111010 (
#893
0#
#894
1#
b01101100 '
b11000010 (
#895
0#
#896
1#
b10000101 '
b11001010 (
#897
0#
#898
1#
b00000111 &
b10011101 '
b11010010 (
#899
0#
#900
1#
b10110101 '
b11011001 (
#901
0#
#902
1#
b11001000 '
b11100000 (
#903
0#
#904
1#
b00000110 &
b11011000 '
b11100111 (
#905
0#
#906
1#
b11100110 '
b11101101 (
#907
0#
#908
1#
b11110000 '
b11110011 (
#909
0#
#910
1#
b00000101 &
b11110111 '
b11111001 (
#911
0#
#912
1#
b11111100 '
b11111110 (
#913
0#
#914
1#
b11111101 '
b00000011 (
#915
0#
#916
1#
b00001000 (
#917
0#
#918
1#
b11111011 '
b00001101 (
#919
0#
#920
1#
b11110111 '
b00010010 (
#921
0#
#922
1#
b00000100 &
b11110001 '
b00010111 (
#923
0#
#924
1#
b11101010 '
b00011011 (
#925
0#
#926
1#
b11100011 '
b00011111 (
#927
0#
#928
1#
b00000011 &
b11011010 '
b00100011 (
#929
0#
#930
1#
b11010001 '
b00100110 (
#931
0#
#932
1#
b11001010 '
b00101001 (
#933
0#
#934
1#
b11000010 '
b00101100 (
#935
0#
#936
1#
b00000010 &
b10111010 '
b00101111 (
#937
0#
#938
1#
b10110010 '
b00110001 (
#939
0#
#940
1#
b10101100 '
b00110011 (
#941
0#
#942
1#
b10100110 '
b00110101 (
#943
0#
#944
1#
b10100000 '
b00110111 (
#945
0#
#946
1#
b00000001 &
b10011010 '
b00111001 (
#947
0#
#948
1#
b10010100 '
b00111010 (
#949
0#
#950
1#
b10010001 '
b00111011 (
#951
0#
#952
1#
b10001110 '
b00111100 (
#953
0#
#954
1#
b10001011 '
b00111101 (
#955
0#
#956
1#
b10001000 '
b00111110 (
#957
0#
#958
1#
b00000000 &
b10000101 '
b00111111 (
#959
0#
#960
1#
b10000010 '
